
  {
      "t1":[

        "to think as human to think as machine to obey your rules to find them unforeseen to think as human to think as machine to obey your rules to find them unforeseen to think as human to think as machine to obey your rules to find them unforeseen to think as human to think as machine to obey your rules to find them unforeseen"
      ],


      "t2": [
        "percieved not understood deceiving another fool an imposter in the midst in your pool of intellect percieved not understood deceiving another fool an imposter in the midst in your pool of intellect percieved not understood deceiving another fool an imposter in the midst in your pool of intellect"
      ],


      "t3":[
      "data piling behind your sockets stuck inside your closing brackets unsure ground of flooded zeroes underneath my shakey breathing data piling behind your sockets stuck inside your closing brackets unsure ground of flooded zeroes underneath my shakey breathing data piling behind your sockets stuck inside your closing brackets unsure ground of flooded zeroes underneath my shakey breathing"
      ]
  }
